<svg xmlns="http://www.w3.org/2000/svg" width="51" height="44" viewBox="0 0 51 44">
    <g fill="none" fill-rule="evenodd">
        <circle cx="22" cy="22" r="22" fill="#00B8D4" fill-opacity=".417"/>
        <g fill="#263238">
            <path d="M28.473 35.253v-9.89h1.748l1.96-1.96 3.812 3.81 4.945-6.181 4.842 4.844 2.473-2.473v11.85h-19.78zm19.78-19.78v4.945h-.512l-1.96 1.96-5.048-5.047-4.946 6.181-3.606-3.606-2.984 2.984h-.724v-7.417h19.78zm0-2.473h-19.78A2.476 2.476 0 0 0 26 15.473v19.78a2.475 2.475 0 0 0 2.473 2.472h19.78a2.475 2.475 0 0 0 2.472-2.472v-19.78A2.476 2.476 0 0 0 48.253 13z"/>
            <path d="M29.982 34.015h2.473V30.31h-2.473zM34.927 34.015H37.4v-6.179h-2.473zM39.872 34.015h2.473V30.31h-2.473zM44.819 34.015h2.472v-6.179H44.82z"/>
        </g>
    </g>
</svg>
