<svg xmlns="http://www.w3.org/2000/svg" width="45" height="44" viewBox="0 0 45 44">
    <g fill="none" fill-rule="evenodd">
        <circle cx="22" cy="22" r="22" fill="#FF5722" fill-opacity=".5"/>
        <g fill="#263238">
            <path d="M33.927 41H42v-6.328l-4.864-1.215A1.502 1.502 0 0 1 36 32v-6.418l-1.5-.5V33.5A1.5 1.5 0 0 1 33 35h-2.073l3 6zm9.573 3H33a1.502 1.502 0 0 1-1.342-.83l-4.5-9A1.502 1.502 0 0 1 28.5 32h3v-9c0-.481.231-.934.623-1.218a1.503 1.503 0 0 1 1.351-.205l4.5 1.5A1.5 1.5 0 0 1 39 24.5v6.329l4.865 1.216A1.5 1.5 0 0 1 45 33.5v9a1.5 1.5 0 0 1-1.5 1.5z"/>
            <path d="M42 14H24c-1.655 0-3 1.347-3 3v10.5c0 1.655 1.345 3 3 3h4.5v-3H24V17h18v10.5h3V17c0-1.653-1.346-3-3-3"/>
        </g>
    </g>
</svg>
